1,tshirt,odziez,40.0,20
2,spodnica,odziez,100.0,30
3,jeansy,odziez,120.0,50
4,top,odziez,30.0,10
5,sweter,odziez,50.0,20
6,kardigan,odziez,70.0,10
7,koc, dom,50.0,100
8,donica,dom,10.0,100
9,lampka,dom,40.0,50
10, ramka,dom,10,200